{
  "allowedOrigins":[
    {
      "apiMapping": "/about/me/profile/basic",
      "urls": [",http://localhost:8080", "http://localhost:4200"]
    },
    {
      "apiMapping": "/about/me/profile/extended",
      "urls": ["http://localhost:8080", "http://localhost:4200"]
    },
    {
      "apiMapping": "/about/me/experience",
      "urls": ["http://localhost:8080", "http://localhost:4200"]
    },
    {
      "apiMapping": "/about/me/education",
      "urls": ["http://localhost:8080", "http://localhost:4200"]
    },
    {
      "apiMapping": "/about/me/skills",
      "urls": [ "http://localhost:8080", "http://localhost:4200"]
    }
  ]
}